[
    {
        "pk": 1,
        "model": "auth.user",
        "fields": {
            "groups": [],
            "first_name": "",
            "password": "pbkdf2_sha256$20000$dSb0smXHMoQo$TYO9wx7rdx+CsHiQDaIGc5GrkcAc+vHUT45+N4+uxfk=",
            "is_staff": true,
            "last_name": "",
            "date_joined": "2016-01-01T13:49:27.165Z",
            "user_permissions": [],
            "is_superuser": true,
            "username": "admin",
            "last_login": "2016-01-04T23:00:51.960Z",
            "email": "",
            "is_active": true
        }
    }
]
