format 74
"dcord"
  revision 1
  modified_by 119 "jcemelanda"


  
  // class settings
  default_attribute_visibility private default_relation_visibility private default_operation_visibility public
  //class diagram settings
  draw_all_relations yes hide_attributes no hide_operations no hide_getset_operations no show_members_full_definition no show_members_visibility no show_members_stereotype no show_members_context no show_members_multiplicity no show_members_initialization no show_attribute_modifiers no member_max_width 127 show_parameter_dir yes show_parameter_name yes package_name_in_tab no class_drawing_mode natural drawing_language uml show_context_mode no auto_label_position yes show_relation_modifiers no show_relation_visibility no show_infonote no shadow yes show_stereotype_properties no
  //use case diagram settings
  package_name_in_tab no show_context no auto_label_position yes draw_all_relations yes class_drawing_mode actor shadow yes show_stereotype_properties no
  //sequence diagram settings
  show_full_operations_definition no write_horizontally yes class_drawing_mode natural drawing_language uml draw_all_relations yes shadow yes show_stereotype_properties no show_class_context_mode no show_msg_context_mode no
  //collaboration diagram settings
  show_full_operations_definition no show_hierarchical_rank no write_horizontally yes drawing_language uml package_name_in_tab no show_context no show_msg_context no draw_all_relations yes shadow yes show_stereotype_properties no
  //object diagram settings
   write_horizontally yes package_name_in_tab no show_context no auto_label_position yes draw_all_relations yes shadow yes show_stereotype_properties no
  //component diagram settings
  package_name_in_tab no show_context no auto_label_position yes draw_all_relations yes shadow yes
  draw_component_as_icon no show_component_req_prov no show_component_rea no show_stereotype_properties no
  //deployment diagram settings
  package_name_in_tab no show_context no write_horizontally yes auto_label_position yes draw_all_relations yes shadow yes
  draw_component_as_icon no show_component_req_prov no show_component_rea no show_stereotype_properties no
  //state diagram settings
  package_name_in_tab no show_context no auto_label_position yes write_trans_label_horizontally yes show_trans_definition no draw_all_relations yes shadow yes
  show_activities yes region_horizontally yes drawing_language uml show_stereotype_properties no
  //activity diagram settings
  package_name_in_tab no show_context no show_opaque_action_definition no auto_label_position yes write_flow_label_horizontally no draw_all_relations yes shadow yes
  show_infonote yes drawing_language uml show_stereotype_properties no
  
  class_color yellow duration_color transparent continuation_color gray note_color blue fragment_color transparent subject_color transparent usecase_color yellow package_color transparent component_color green artifact_color green deploymentnode_color gray state_color yellow stateaction_color transparent activity_color transparent activityregion_color transparent activitypartition_color transparent activityaction_color transparent parameterpin_color white 
  font_size 10
  diagram_format A4

  mark_for_import
  
  classview 128119 "dcodr"
    //class diagram settings
    draw_all_relations default hide_attributes default hide_operations default hide_getset_operations default show_members_full_definition default show_members_visibility default show_members_stereotype default show_members_context default show_members_multiplicity default show_members_initialization default show_attribute_modifiers default member_max_width 0 show_parameter_dir default show_parameter_name default package_name_in_tab default class_drawing_mode default drawing_language default show_context_mode default auto_label_position default show_relation_modifiers default show_relation_visibility default show_infonote default shadow default show_stereotype_properties default
    //collaboration diagram settings
    show_full_operations_definition default show_hierarchical_rank default write_horizontally default drawing_language default package_name_in_tab default show_context default show_msg_context default draw_all_relations default shadow default show_stereotype_properties default
    //object diagram settings
     write_horizontally default package_name_in_tab default show_context default auto_label_position default draw_all_relations default shadow default show_stereotype_properties default
    //sequence diagram settings
    show_full_operations_definition default write_horizontally default class_drawing_mode default drawing_language default draw_all_relations default shadow default show_stereotype_properties default show_class_context_mode default show_msg_context_mode default
    //state diagram settings
    package_name_in_tab default show_context default auto_label_position default write_trans_label_horizontally default show_trans_definition default draw_all_relations default shadow default
    show_activities default region_horizontally default drawing_language default show_stereotype_properties default
    //class settings
    //activity diagram settings
    package_name_in_tab default show_context default show_opaque_action_definition default auto_label_position default write_flow_label_horizontally default draw_all_relations default shadow default
    show_infonote default drawing_language default show_stereotype_properties default
    classdiagram 128119 "models"
      draw_all_relations default hide_attributes default hide_operations default hide_getset_operations default show_members_full_definition default show_members_visibility default show_members_stereotype default show_members_context default show_members_multiplicity default show_members_initialization default show_attribute_modifiers default member_max_width 0 show_parameter_dir default show_parameter_name default package_name_in_tab default class_drawing_mode default drawing_language default show_context_mode default auto_label_position default show_relation_modifiers default show_relation_visibility default show_infonote default shadow default show_stereotype_properties default
      size A4
    end

    class 128119 "Patient"
      visibility package 
      cpp_decl ""
      java_decl ""
      php_decl ""
      python_2_2 python_decl "class ${name}${inherit}:
${docstring}${members}
"
      idl_decl ""
      explicit_switch_type ""
      
      classrelation 128247 // <association>
	relation_ref 128119 // <association>
      end
    end

    class 128247 "Operation"
      visibility package 
      cpp_decl ""
      java_decl ""
      php_decl ""
      python_2_2 python_decl "class ${name}${inherit}:
${docstring}${members}
"
      idl_decl ""
      explicit_switch_type ""
      
      attribute 128119 "patient"
	private type class_ref 128119 // Patient
	cpp_decl ""
	java_decl ""
	php_decl ""
	python_decl "${comment}${self}${name} = ${value}
"
	idl_decl ""
      end

      classrelation 128119 // <association>
	relation 128119 ----
	  a role_name "" multiplicity "*" private
	    python "${comment}${self}${name} = ${value}
"
	    classrelation_ref 128119 // <association>
	  b role_name "" multiplicity "1" private
	    python "${comment}${self}${name} = ${value}
"
	    classrelation_ref 128247 // <association>
      end

      classrelation 128503 // <association>
	relation_ref 128247 // <association>
      end

      classrelation 128631 // <association>
	relation 128375 ----
	  a role_name "" multiplicity "*" private
	    python "${comment}${self}${name} = ${value}
"
	    classrelation_ref 128631 // <association>
	  b role_name "" multiplicity "1" private
	    python "${comment}${self}${name} = ${value}
"
	    classrelation_ref 128759 // <association>
      end
    end

    class 128375 "Survey"
      visibility package 
      cpp_decl ""
      java_decl ""
      php_decl ""
      python_2_2 python_decl "class ${name}${inherit}:
${docstring}${members}
"
      idl_decl ""
      explicit_switch_type ""
      
      classrelation 128375 // <association>
	relation 128247 ----
	  a role_name "" multiplicity "*" private
	    python "${comment}${self}${name} = ${value}
"
	    classrelation_ref 128375 // <association>
	  b role_name "" multiplicity "1" private
	    python "${comment}${self}${name} = ${value}
"
	    classrelation_ref 128503 // <association>
      end

      attribute 128247 "operation"
	private type class_ref 128247 // Operation
	cpp_decl ""
	java_decl ""
	php_decl ""
	python_decl "${comment}${self}${name} = ${value}
"
	idl_decl ""
      end

      classrelation 129783 // <association>
	relation_ref 128887 // <association>
      end
    end

    class 128503 "Procedure"
      visibility package 
      cpp_decl ""
      java_decl ""
      php_decl ""
      python_2_2 python_decl "class ${name}${inherit}:
${docstring}${members}
"
      idl_decl ""
      explicit_switch_type ""
      
      classrelation 128759 // <association>
	relation_ref 128375 // <association>
      end

      attribute 128375 "operation"
	private explicit_type ""
	cpp_decl ""
	java_decl ""
	php_decl ""
	python_decl "${comment}${self}${name} = ${value}
"
	idl_decl ""
      end

      classrelation 129015 // <association>
	relation_ref 128503 // <association>
      end
    end

    class 128631 "OutcomeMeasure"
      visibility package 
      cpp_decl ""
      java_decl ""
      php_decl ""
      python_2_2 python_decl "class ${name}${inherit}:
${docstring}${members}
"
      idl_decl ""
      explicit_switch_type ""
      
      classrelation 128887 // <association>
	relation 128503 ----
	  a role_name "" multiplicity "*" private
	    python "${comment}${self}${name} = ${value}
"
	    classrelation_ref 128887 // <association>
	  b role_name "" multiplicity "1" private
	    python "${comment}${self}${name} = ${value}
"
	    classrelation_ref 129015 // <association>
      end

      classrelation 129271 // <association>
	relation_ref 128631 // <association>
      end
    end

    class 128759 "OutcomeMeasureQuestion"
      visibility package 
      cpp_decl ""
      java_decl ""
      php_decl ""
      python_2_2 python_decl "class ${name}${inherit}:
${docstring}${members}
"
      idl_decl ""
      explicit_switch_type ""
      
      classrelation 129143 // <association>
	relation 128631 ----
	  a role_name "" multiplicity "*" private
	    python "${comment}${self}${name} = ${value}
"
	    classrelation_ref 129143 // <association>
	  b role_name "" multiplicity "1" private
	    python "${comment}${self}${name} = ${value}
"
	    classrelation_ref 129271 // <association>
      end

      classrelation 129527 // <association>
	relation_ref 128759 // <association>
      end
    end

    class 128887 "OutcomeMeasureAnswer"
      visibility package 
      cpp_decl ""
      java_decl ""
      php_decl ""
      python_2_2 python_decl "class ${name}${inherit}:
${docstring}${members}
"
      idl_decl ""
      explicit_switch_type ""
      
      classrelation 129399 // <association>
	relation 128759 ----
	  a role_name "" multiplicity "*" private
	    python "${comment}${self}${name} = ${value}
"
	    classrelation_ref 129399 // <association>
	  b role_name "" multiplicity "1" private
	    python "${comment}${self}${name} = ${value}
"
	    classrelation_ref 129527 // <association>
      end

      classrelation 129655 // <association>
	relation 128887 ----
	  a role_name "" multiplicity "*" private
	    python "${comment}${self}${name} = ${value}
"
	    classrelation_ref 129655 // <association>
	  b role_name "" multiplicity "1" private
	    python "${comment}${self}${name} = ${value}
"
	    classrelation_ref 129783 // <association>
      end
    end
  end
end
